%YAML 1.1
%TAG !u! tag:unity3d.com,2011:
--- !u!74 &7400000
AnimationClip:
  m_ObjectHideFlags: 0
  m_CorrespondingSourceObject: {fileID: 0}
  m_PrefabInstance: {fileID: 0}
  m_PrefabAsset: {fileID: 0}
  m_Name: boss1
  serializedVersion: 6
  m_Legacy: 0
  m_Compressed: 0
  m_UseHighQualityCurve: 1
  m_RotationCurves: []
  m_CompressedRotationCurves: []
  m_EulerCurves: []
  m_PositionCurves: []
  m_ScaleCurves: []
  m_FloatCurves: []
  m_PPtrCurves:
  - curve:
    - time: 0
      value: {fileID: 21300000, guid: 3c02742714ebd834bb6a630012607313, type: 3}
    - time: 0.2
      value: {fileID: 21300000, guid: a2d3969406269384c9e65ef10f4061f8, type: 3}
    - time: 0.4
      value: {fileID: 21300000, guid: a247feef5fa14704193127fbb324e460, type: 3}
    - time: 0.6
      value: {fileID: 21300000, guid: 5702003cb4dffb9458a4049e0471b5cd, type: 3}
    - time: 0.8
      value: {fileID: 21300000, guid: 9cb9883b494a6cf469c762962f0d7020, type: 3}
    - time: 1
      value: {fileID: 21300000, guid: 32c7dd78df03e114ebdacace6dad980f, type: 3}
    - time: 1.2
      value: {fileID: 21300000, guid: 9827bca22618c9b4883c5266a38b476d, type: 3}
    - time: 1.4
      value: {fileID: 21300000, guid: c1d89d0c91d75c84090f90aa05a60d15, type: 3}
    - time: 1.6
      value: {fileID: 21300000, guid: 8cd3e6f4673a7344b94e35673c8d8ce0, type: 3}
    - time: 1.8
      value: {fileID: 21300000, guid: 477cc0bfa61d3cb47b79fcaf2f002223, type: 3}
    attribute: m_Sprite
    path: 
    classID: 212
    script: {fileID: 0}
  m_SampleRate: 5
  m_WrapMode: 0
  m_Bounds:
    m_Center: {x: 0, y: 0, z: 0}
    m_Extent: {x: 0, y: 0, z: 0}
  m_ClipBindingConstant:
    genericBindings:
    - serializedVersion: 2
      path: 0
      attribute: 0
      script: {fileID: 0}
      typeID: 212
      customType: 23
      isPPtrCurve: 1
    pptrCurveMapping:
    - {fileID: 21300000, guid: 3c02742714ebd834bb6a630012607313, type: 3}
    - {fileID: 21300000, guid: a2d3969406269384c9e65ef10f4061f8, type: 3}
    - {fileID: 21300000, guid: a247feef5fa14704193127fbb324e460, type: 3}
    - {fileID: 21300000, guid: 5702003cb4dffb9458a4049e0471b5cd, type: 3}
    - {fileID: 21300000, guid: 9cb9883b494a6cf469c762962f0d7020, type: 3}
    - {fileID: 21300000, guid: 32c7dd78df03e114ebdacace6dad980f, type: 3}
    - {fileID: 21300000, guid: 9827bca22618c9b4883c5266a38b476d, type: 3}
    - {fileID: 21300000, guid: c1d89d0c91d75c84090f90aa05a60d15, type: 3}
    - {fileID: 21300000, guid: 8cd3e6f4673a7344b94e35673c8d8ce0, type: 3}
    - {fileID: 21300000, guid: 477cc0bfa61d3cb47b79fcaf2f002223, type: 3}
  m_AnimationClipSettings:
    serializedVersion: 2
    m_AdditiveReferencePoseClip: {fileID: 0}
    m_AdditiveReferencePoseTime: 0
    m_StartTime: 0
    m_StopTime: 2
    m_OrientationOffsetY: 0
    m_Level: 0
    m_CycleOffset: 0
    m_HasAdditiveReferencePose: 0
    m_LoopTime: 0
    m_LoopBlend: 0
    m_LoopBlendOrientation: 0
    m_LoopBlendPositionY: 0
    m_LoopBlendPositionXZ: 0
    m_KeepOriginalOrientation: 0
    m_KeepOriginalPositionY: 1
    m_KeepOriginalPositionXZ: 0
    m_HeightFromFeet: 0
    m_Mirror: 0
  m_EditorCurves: []
  m_EulerEditorCurves: []
  m_HasGenericRootTransform: 0
  m_HasMotionFloatCurves: 0
  m_Events: []
