%YAML 1.1
%TAG !u! tag:unity3d.com,2011:
--- !u!1045 &1
EditorBuildSettings:
  m_ObjectHideFlags: 0
  serializedVersion: 2
  m_Scenes:
  - enabled: 1
    path: Assets/Scenes/MainMenu.unity
    guid: dc139872a3de283409baf5bb4fc38a60
  - enabled: 1
    path: Assets/Scenes/Level_1.unity
    guid: 2cda990e2423bbf4892e6590ba056729
  - enabled: 1
    path: Assets/Scenes/Level_2.unity
    guid: 1dcab5924f0dbec46840dfd62a6cfc12
  - enabled: 1
    path: Assets/Scenes/Level_3.unity
    guid: cf9e19c76b3f9f644980f12857372edb
  - enabled: 1
    path: Assets/Scenes/Level_infinite.unity
    guid: beaca8e0dc41d1f40ad470e5361f3ba6
  m_configObjects: {}
